%YAML 1.1
%TAG !u! tag:unity3d.com,2011:
--- !u!114 &11400000
MonoBehaviour:
  m_ObjectHideFlags: 0
  m_CorrespondingSourceObject: {fileID: 0}
  m_PrefabInstance: {fileID: 0}
  m_PrefabAsset: {fileID: 0}
  m_GameObject: {fileID: 0}
  m_Enabled: 1
  m_EditorHideFlags: 0
  m_Script: {fileID: 11500000, guid: 80ccf1736318948418ac07aa1ce43dfb, type: 3}
  m_Name: CS Rider Default
  m_EditorClassIdentifier: 
  PivotPos: {x: 0.3, y: 1.5, z: 0}
  CamPos: {x: 0, y: 0, z: -5.86}
  CamFOV: 45
  transition: 1
