%YAML 1.1
%TAG !u! tag:unity3d.com,2011:
--- !u!114 &11400000
MonoBehaviour:
  m_ObjectHideFlags: 0
  m_CorrespondingSourceObject: {fileID: 0}
  m_PrefabInstance: {fileID: 0}
  m_PrefabAsset: {fileID: 0}
  m_GameObject: {fileID: 0}
  m_Enabled: 1
  m_EditorHideFlags: 0
  m_Script: {fileID: 11500000, guid: 17854e2b77c55fe49ae58c538020f473, type: 3}
  m_Name: Pool3_2
  m_EditorClassIdentifier: 
  prefabTypes:
  - prefab: {fileID: 3744320885544514481, guid: ae64729d31b6cf14d971212e2d9440d7,
      type: 3}
    amount: 1
  - prefab: {fileID: 1407988264445083783, guid: bc61efcff3225a948be0911a697e8a0b,
      type: 3}
    amount: 1
