%YAML 1.1
%TAG !u! tag:unity3d.com,2011:
--- !u!114 &11400000
MonoBehaviour:
  m_ObjectHideFlags: 2
  m_PrefabParentObject: {fileID: 0}
  m_PrefabInternal: {fileID: 0}
  m_GameObject: {fileID: 0}
  m_Enabled: 1
  m_EditorHideFlags: 0
  m_Script: {fileID: 11500000, guid: 0428e807d0c4eb44f80a4bf8193243f9, type: 3}
  m_Name: Fox Jump
  m_EditorClassIdentifier: 
  Index: 0
  Active: 1
  ID: {fileID: 11400000, guid: 9ae07cd2f8f4c054687fecf634f8e5b3, type: 2}
  Input: Jump
  General:
    modify: 2253
    RootMotion: 1
    Sprint: 1
    Gravity: 0
    Grounded: 0
    OrientToGround: 0
    CustomRotation: 0
    FreeMovement: 0
    AdditivePosition: 1
    Persistent: 0
    IgnoreLowerStates: 1
    LockMovement: 0
    LockInput: 0
    Colliders: 1
  ExitFrame: 1
  SleepFrom:
  - {fileID: 11400000, guid: 8078fbdb01991b44b9c1351f444b5efe, type: 2}
  - {fileID: 11400000, guid: 7e364e53b77644c47aa3abdaa2e2c08c, type: 2}
  QueueFrom: []
  TagModifiers:
  - AnimationTag: JumpStart
    modifier:
      modify: 2075
      RootMotion: 1
      Sprint: 1
      Gravity: 0
      Grounded: 1
      OrientToGround: 1
      CustomRotation: 0
      FreeMovement: 0
      AdditivePosition: 1
      Persistent: 0
      IgnoreLowerStates: 0
      LockMovement: 0
      LockInput: 0
      Colliders: 1
  - AnimationTag: JumpEnd
    modifier:
      modify: 2073
      RootMotion: 1
      Sprint: 1
      Gravity: 0
      Grounded: 1
      OrientToGround: 1
      CustomRotation: 0
      FreeMovement: 0
      AdditivePosition: 1
      Persistent: 0
      IgnoreLowerStates: 0
      LockMovement: 0
      LockInput: 0
      Colliders: 1
  debug: 0
  JumpPressed: 0
  JumpPressedLerp: 2
  AirRotation:
    UseConstant: 1
    ConstantValue: 10
    Variable: {fileID: 0}
  jumpProfiles:
  - name: In Place
    VerticalSpeed: 0
    JumpLandDistance: 1.73
    fallingTime: 0.67
    CliffTime:
      minValue: 0.5572339
      maxValue: 0.7049344
    CliffLandDistance: 0.75
    HeightMultiplier: 1
    ForwardMultiplier: 1
  - name: Forward
    VerticalSpeed: 0.9
    JumpLandDistance: 1.375
    fallingTime: 0.68
    CliffTime:
      minValue: 0.5572339
      maxValue: 0.7049344
    CliffLandDistance: 0.75
    HeightMultiplier: 1
    ForwardMultiplier: 1
  - name: Run
    VerticalSpeed: 2.9
    JumpLandDistance: 1.715
    fallingTime: 0.65
    CliffTime:
      minValue: 0.5572339
      maxValue: 0.7049344
    CliffLandDistance: 0.75
    HeightMultiplier: 1
    ForwardMultiplier: 1
